#Derived from histogram of ..\..\..\..\L4 Dish Receivers\KeyPerformanceParameters\B45\ASNT7123_hist.csv; FILLLED missing codes with random values matching actual DNL
0,0.292436
1,0.274093
2,-0.143891
3,-0.268065
4,-0.431386
5,-0.205026
6,0.0748307
7,-0.0321738
8,0.196303
9,-0.18696
10,0.237071
11,0.515768
12,0.162604
13,-0.237303
14,-0.271054
15,0.0227528
